{
  "name": "Customer",
  "base": "PersistedModel",
  "idInjection": true,
  "options": {
    "validateUpsert": true
  },
  "properties": {
    "FirstName": {
      "type": "string",
      "required": true
    },
    "Lastname": {
      "type": "string",
      "required": true
    },
    "Email": {
      "type": "string",
      "required": true
    },
    "Mobile": {
      "type": "number",
      "required": true
    }
  },
  "validations": [],
  "relations": {},
  "acls": [],
  "methods": {}
}
